{"count":146,"next":"https://ll.thespacedevs.com/2.2.0/expedition/?format=json&limit=10&offset=10","previous":null,"results":[{"id":2,"url":"https://ll.thespacedevs.com/2.2.0/expedition/2/?format=json","name":"Skylab 2","start":"1973-05-25T13:00:00Z","end":"1973-06-22T13:49:48Z","spacestation":{"id":6,"url":"https://ll.thespacedevs.com/2.2.0/spacestation/6/?format=json","name":"Skylab","status":{"id":2,"name":"De-Orbited"},"orbit":"Low Earth Orbit","image_url":"https://spacelaunchnow-prod-east.nyc3.digitaloceanspaces.com/media/spacestation_images/skylab_image_20190215230143.jpeg"},"mission_patches":[]},{"id":3,"url":"https://ll.thespacedevs.com/2.2.0/expedition/3/?format=json","name":"Skylab 3","start":"1973-07-28T11:10:50Z","end":"1973-09-25T22:19:51Z","spacestation":{"id":6,"url":"https://ll.thespacedevs.com/2.2.0/spacestation/6/?format=json","name":"Skylab","status":{"id":2,"name":"De-Orbited"},"orbit":"Low Earth Orbit","image_url":"https://spacelaunchnow-prod-east.nyc3.digitaloceanspaces.com/media/spacestation_images/skylab_image_20190215230143.jpeg"},"mission_patches":[]},{"id":4,"url":"https://ll.thespacedevs.com/2.2.0/expedition/4/?format=json","name":"Skylab 4","start":"1973-11-16T14:01:23Z","end":"1974-02-08T15:16:53Z","spacestation":{"id":6,"url":"https://ll.thespacedevs.com/2.2.0/spacestation/6/?format=json","name":"Skylab","status":{"id":2,"name":"De-Orbited"},"orbit":"Low Earth Orbit","image_url":"https://spacelaunchnow-prod-east.nyc3.digitaloceanspaces.com/media/spacestation_images/skylab_image_20190215230143.jpeg"},"mission_patches":[]},{"id":97,"url":"https://ll.thespacedevs.com/2.2.0/expedition/97/?format=json","name":"Soyuz 18","start":"1975-05-24T14:58:10Z","end":"1975-07-26T14:18:18Z","spacestation":{"id":12,"url":"https://ll.thespacedevs.com/2.2.0/spacestation/12/?format=json","name":"Salyut 4","status":{"id":2,"name":"De-Orbited"},"orbit":"Low Earth Orbit","image_url":"https://spacelaunchnow-prod-east.nyc3.digitaloceanspaces.com/media/spacestation_images/salyut25204_image_20190310081804.jpg"},"mission_patches":[]},{"id":99,"url":"https://ll.thespacedevs.com/2.2.0/expedition/99/?format=json","name":"Soyuz 23","start":"1976-10-14T17:39:18Z","end":"1976-10-16T17:45:53Z","spacestation":{"id":13,"url":"https://ll.thespacedevs.com/2.2.0/spacestation/13/?format=json","name":"Salyut 5","status":{"id":2,"name":"De-Orbited"},"orbit":"Low Earth Orbit","image_url":"https://spacelaunchnow-prod-east.nyc3.digitaloceanspaces.com/media/spacestation_images/salyut25205_image_20190318095611.png"},"mission_patches":[]},{"id":5,"url":"https://ll.thespacedevs.com/2.2.0/expedition/5/?format=json","name":"Soyuz 10","start":"1971-04-23T23:54:06Z","end":"1971-04-24T23:40:00Z","spacestation":{"id":9,"url":"https://ll.thespacedevs.com/2.2.0/spacestation/9/?format=json","name":"Salyut 1","status":{"id":2,"name":"De-Orbited"},"orbit":"Low Earth Orbit","image_url":"https://spacelaunchnow-prod-east.nyc3.digitaloceanspaces.com/media/spacestation_images/salyut25201_image_20190217072508.jpeg"},"mission_patches":[]},{"id":100,"url":"https://ll.thespacedevs.com/2.2.0/expedition/100/?format=json","name":"Soyuz 24","start":"1977-02-07T16:11:50Z","end":"1977-02-25T09:37:48Z","spacestation":{"id":13,"url":"https://ll.thespacedevs.com/2.2.0/spacestation/13/?format=json","name":"Salyut 5","status":{"id":2,"name":"De-Orbited"},"orbit":"Low Earth Orbit","image_url":"https://spacelaunchnow-prod-east.nyc3.digitaloceanspaces.com/media/spacestation_images/salyut25205_image_20190318095611.png"},"mission_patches":[]},{"id":6,"url":"https://ll.thespacedevs.com/2.2.0/expedition/6/?format=json","name":"Soyuz 11","start":"1971-06-06T04:55:09Z","end":"1971-06-29T23:16:52Z","spacestation":{"id":9,"url":"https://ll.thespacedevs.com/2.2.0/spacestation/9/?format=json","name":"Salyut 1","status":{"id":2,"name":"De-Orbited"},"orbit":"Low Earth Orbit","image_url":"https://spacelaunchnow-prod-east.nyc3.digitaloceanspaces.com/media/spacestation_images/salyut25201_image_20190217072508.jpeg"},"mission_patches":[]},{"id":7,"url":"https://ll.thespacedevs.com/2.2.0/expedition/7/?format=json","name":"Mir EO-1","start":"1986-03-13T12:33:00Z","end":"1986-07-16T12:34:00Z","spacestation":{"id":5,"url":"https://ll.thespacedevs.com/2.2.0/spacestation/5/?format=json","name":"Mir","status":{"id":2,"name":"De-Orbited"},"orbit":"Low Earth Orbit","image_url":"https://spacelaunchnow-prod-east.nyc3.digitaloceanspaces.com/media/spacestation_images/mir_image_20190218204938.jpeg"},"mission_patches":[]},{"id":8,"url":"https://ll.thespacedevs.com/2.2.0/expedition/8/?format=json","name":"Mir EO-2","start":"1987-02-05T21:38:00Z","end":"1987-12-29T09:16:00Z","spacestation":{"id":5,"url":"https://ll.thespacedevs.com/2.2.0/spacestation/5/?format=json","name":"Mir","status":{"id":2,"name":"De-Orbited"},"orbit":"Low Earth Orbit","image_url":"https://spacelaunchnow-prod-east.nyc3.digitaloceanspaces.com/media/spacestation_images/mir_image_20190218204938.jpeg"},"mission_patches":[]}]}