{"count":474,"next":"https://ll.thespacedevs.com/2.2.0/config/launcher/?format=json&limit=10&offset=10","previous":null,"results":[{"id":136,"url":"https://ll.thespacedevs.com/2.2.0/config/launcher/136/?format=json","name":"Angara 1.2","manufacturer":{"id":96,"url":"https://ll.thespacedevs.com/2.2.0/agencies/96/?format=json","name":"Khrunichev State Research and Production Space Center","featured":true,"type":"Government","country_code":"RUS","abbrev":"KhSC","description":"Khrunichev State Research and Production Space Center is a Moscow-based producer of spacecraft and space-launch systems, including the Proton and Rokot rockets and is currently developing the Angara rocket family. The Proton launch vehicle launches from Baikonur and Rokot launches from Baikonur and Plesetsk. Angara will launch from Plesetsk and Vostochny.","administrator":"Director: Andrey Vladimirovich Kalinovskiy","founding_year":"1916","launchers":"Proton | Rokot","spacecraft":"","parent":null,"image_url":"https://spacelaunchnow-prod-east.nyc3.digitaloceanspaces.com/media/agency_images/khrunichev2520state2520research2520and2520production2520space2520center_image_20190207032444.jpeg"},"program":[],"family":"Angara","full_name":"Angara 1.2","variant":"1.2","reusable":false,"image_url":"https://spacelaunchnow-prod-east.nyc3.digitaloceanspaces.com/media/launcher_images/angara25201.2_image_20190224012254.jpeg","info_url":"http://www.ilslaunch.com/node/4680","wiki_url":"https://en.wikipedia.org/wiki/Angara_(rocket_family)#Angara_1.2"},{"id":53,"url":"https://ll.thespacedevs.com/2.2.0/config/launcher/53/?format=json","name":"Angara-1.2pp","manufacturer":{"id":96,"url":"https://ll.thespacedevs.com/2.2.0/agencies/96/?format=json","name":"Khrunichev State Research and Production Space Center","featured":true,"type":"Government","country_code":"RUS","abbrev":"KhSC","description":"Khrunichev State Research and Production Space Center is a Moscow-based producer of spacecraft and space-launch systems, including the Proton and Rokot rockets and is currently developing the Angara rocket family. The Proton launch vehicle launches from Baikonur and Rokot launches from Baikonur and Plesetsk. Angara will launch from Plesetsk and Vostochny.","administrator":"Director: Andrey Vladimirovich Kalinovskiy","founding_year":"1916","launchers":"Proton | Rokot","spacecraft":"","parent":null,"image_url":"https://spacelaunchnow-prod-east.nyc3.digitaloceanspaces.com/media/agency_images/khrunichev2520state2520research2520and2520production2520space2520center_image_20190207032444.jpeg"},"program":[],"family":"Angara","full_name":"Angara 1.2pp","variant":"1.2pp","reusable":false,"image_url":"https://spacelaunchnow-prod-east.nyc3.digitaloceanspaces.com/media/launcher_images/angara-1.2pp_image_20190630234801.jpg","info_url":"http://www.ilslaunch.com/node/4680","wiki_url":"https://en.wikipedia.org/wiki/Angara-1.2pp"},{"id":73,"url":"https://ll.thespacedevs.com/2.2.0/config/launcher/73/?format=json","name":"Angara A5","manufacturer":{"id":96,"url":"https://ll.thespacedevs.com/2.2.0/agencies/96/?format=json","name":"Khrunichev State Research and Production Space Center","featured":true,"type":"Government","country_code":"RUS","abbrev":"KhSC","description":"Khrunichev State Research and Production Space Center is a Moscow-based producer of spacecraft and space-launch systems, including the Proton and Rokot rockets and is currently developing the Angara rocket family. The Proton launch vehicle launches from Baikonur and Rokot launches from Baikonur and Plesetsk. Angara will launch from Plesetsk and Vostochny.","administrator":"Director: Andrey Vladimirovich Kalinovskiy","founding_year":"1916","launchers":"Proton | Rokot","spacecraft":"","parent":null,"image_url":"https://spacelaunchnow-prod-east.nyc3.digitaloceanspaces.com/media/agency_images/khrunichev2520state2520research2520and2520production2520space2520center_image_20190207032444.jpeg"},"program":[],"family":"Angara","full_name":"Angara A5","variant":"Briz-M","reusable":false,"image_url":"https://spacelaunchnow-prod-east.nyc3.digitaloceanspaces.com/media/launcher_images/angara2520a5_image_20190630234836.jpg","info_url":null,"wiki_url":"https://en.wikipedia.org/wiki/Angara_(rocket_family)"},{"id":196,"url":"https://ll.thespacedevs.com/2.2.0/config/launcher/196/?format=json","name":"Angara A5/Persey","manufacturer":{"id":96,"url":"https://ll.thespacedevs.com/2.2.0/agencies/96/?format=json","name":"Khrunichev State Research and Production Space Center","featured":true,"type":"Government","country_code":"RUS","abbrev":"KhSC","description":"Khrunichev State Research and Production Space Center is a Moscow-based producer of spacecraft and space-launch systems, including the Proton and Rokot rockets and is currently developing the Angara rocket family. The Proton launch vehicle launches from Baikonur and Rokot launches from Baikonur and Plesetsk. Angara will launch from Plesetsk and Vostochny.","administrator":"Director: Andrey Vladimirovich Kalinovskiy","founding_year":"1916","launchers":"Proton | Rokot","spacecraft":"","parent":null,"image_url":"https://spacelaunchnow-prod-east.nyc3.digitaloceanspaces.com/media/agency_images/khrunichev2520state2520research2520and2520production2520space2520center_image_20190207032444.jpeg"},"program":[],"family":"Angara","full_name":"Angara A5/Persey","variant":"A5/Persey","reusable":false,"image_url":"https://spacelaunchnow-prod-east.nyc3.digitaloceanspaces.com/media/launcher_images/angara_a52fper_image_20211227193648.jpg","info_url":null,"wiki_url":null},{"id":69,"url":"https://ll.thespacedevs.com/2.2.0/config/launcher/69/?format=json","name":"Antares 110","manufacturer":{"id":100,"url":"https://ll.thespacedevs.com/2.2.0/agencies/100/?format=json","name":"Orbital Sciences Corporation","featured":false,"type":"Commercial","country_code":"USA","abbrev":"OSC","description":null,"administrator":null,"founding_year":null,"launchers":"","spacecraft":"","parent":null,"image_url":null},"program":[{"id":11,"url":"https://ll.thespacedevs.com/2.2.0/program/11/?format=json","name":"Commercial Resupply Services","description":"Commercial Resupply Services (CRS) are a series of flights awarded by NASA for the delivery of cargo and supplies to the International Space Station.The first CRS contracts were signed in 2008 and awarded $1.6 billion to SpaceX for twelve cargo Dragon and $1.9 billion to Orbital Sciences for eight Cygnus flights, covering deliveries to 2016. The Falcon 9 and Antares rockets were also developed under the CRS program to deliver cargo spacecraft to the ISS.","agencies":[{"id":44,"url":"https://ll.thespacedevs.com/2.2.0/agencies/44/?format=json","name":"National Aeronautics and Space Administration","type":"Government"},{"id":257,"url":"https://ll.thespacedevs.com/2.2.0/agencies/257/?format=json","name":"Northrop Grumman Space Systems","type":"Commercial"},{"id":1020,"url":"https://ll.thespacedevs.com/2.2.0/agencies/1020/?format=json","name":"Sierra Nevada Corporation","type":"Commercial"},{"id":121,"url":"https://ll.thespacedevs.com/2.2.0/agencies/121/?format=json","name":"SpaceX","type":"Commercial"}],"image_url":"https://spacelaunchnow-prod-east.nyc3.digitaloceanspaces.com/media/program_images/commercial2520_program_20201129212219.png","start_date":"2008-12-23T00:00:00Z","end_date":null,"info_url":null,"wiki_url":"https://en.wikipedia.org/wiki/Commercial_Resupply_Services#Commercial_Resupply_Services","mission_patches":[]}],"family":"Antares","full_name":"Antares 110","variant":"110","reusable":false,"image_url":"https://spacelaunchnow-prod-east.nyc3.digitaloceanspaces.com/media/launcher_images/antares_image_20190222030727.jpeg","info_url":"http://www.northropgrumman.com/Capabilities/Antares/Pages/default.aspx","wiki_url":"https://en.wikipedia.org/wiki/Antares_(rocket)#Antares_100"},{"id":63,"url":"https://ll.thespacedevs.com/2.2.0/config/launcher/63/?format=json","name":"Antares 120","manufacturer":{"id":100,"url":"https://ll.thespacedevs.com/2.2.0/agencies/100/?format=json","name":"Orbital Sciences Corporation","featured":false,"type":"Commercial","country_code":"USA","abbrev":"OSC","description":null,"administrator":null,"founding_year":null,"launchers":"","spacecraft":"","parent":null,"image_url":null},"program":[{"id":11,"url":"https://ll.thespacedevs.com/2.2.0/program/11/?format=json","name":"Commercial Resupply Services","description":"Commercial Resupply Services (CRS) are a series of flights awarded by NASA for the delivery of cargo and supplies to the International Space Station.The first CRS contracts were signed in 2008 and awarded $1.6 billion to SpaceX for twelve cargo Dragon and $1.9 billion to Orbital Sciences for eight Cygnus flights, covering deliveries to 2016. The Falcon 9 and Antares rockets were also developed under the CRS program to deliver cargo spacecraft to the ISS.","agencies":[{"id":44,"url":"https://ll.thespacedevs.com/2.2.0/agencies/44/?format=json","name":"National Aeronautics and Space Administration","type":"Government"},{"id":257,"url":"https://ll.thespacedevs.com/2.2.0/agencies/257/?format=json","name":"Northrop Grumman Space Systems","type":"Commercial"},{"id":1020,"url":"https://ll.thespacedevs.com/2.2.0/agencies/1020/?format=json","name":"Sierra Nevada Corporation","type":"Commercial"},{"id":121,"url":"https://ll.thespacedevs.com/2.2.0/agencies/121/?format=json","name":"SpaceX","type":"Commercial"}],"image_url":"https://spacelaunchnow-prod-east.nyc3.digitaloceanspaces.com/media/program_images/commercial2520_program_20201129212219.png","start_date":"2008-12-23T00:00:00Z","end_date":null,"info_url":null,"wiki_url":"https://en.wikipedia.org/wiki/Commercial_Resupply_Services#Commercial_Resupply_Services","mission_patches":[]}],"family":"Antares","full_name":"Antares 120","variant":"120","reusable":false,"image_url":"https://spacelaunchnow-prod-east.nyc3.digitaloceanspaces.com/media/launcher_images/antares_image_20190704015241.jpeg","info_url":"http://www.northropgrumman.com/Capabilities/Antares/Pages/default.aspx","wiki_url":"https://en.wikipedia.org/wiki/Antares_(rocket)#Antares_100"},{"id":59,"url":"https://ll.thespacedevs.com/2.2.0/config/launcher/59/?format=json","name":"Antares 130","manufacturer":{"id":100,"url":"https://ll.thespacedevs.com/2.2.0/agencies/100/?format=json","name":"Orbital Sciences Corporation","featured":false,"type":"Commercial","country_code":"USA","abbrev":"OSC","description":null,"administrator":null,"founding_year":null,"launchers":"","spacecraft":"","parent":null,"image_url":null},"program":[{"id":11,"url":"https://ll.thespacedevs.com/2.2.0/program/11/?format=json","name":"Commercial Resupply Services","description":"Commercial Resupply Services (CRS) are a series of flights awarded by NASA for the delivery of cargo and supplies to the International Space Station.The first CRS contracts were signed in 2008 and awarded $1.6 billion to SpaceX for twelve cargo Dragon and $1.9 billion to Orbital Sciences for eight Cygnus flights, covering deliveries to 2016. The Falcon 9 and Antares rockets were also developed under the CRS program to deliver cargo spacecraft to the ISS.","agencies":[{"id":44,"url":"https://ll.thespacedevs.com/2.2.0/agencies/44/?format=json","name":"National Aeronautics and Space Administration","type":"Government"},{"id":257,"url":"https://ll.thespacedevs.com/2.2.0/agencies/257/?format=json","name":"Northrop Grumman Space Systems","type":"Commercial"},{"id":1020,"url":"https://ll.thespacedevs.com/2.2.0/agencies/1020/?format=json","name":"Sierra Nevada Corporation","type":"Commercial"},{"id":121,"url":"https://ll.thespacedevs.com/2.2.0/agencies/121/?format=json","name":"SpaceX","type":"Commercial"}],"image_url":"https://spacelaunchnow-prod-east.nyc3.digitaloceanspaces.com/media/program_images/commercial2520_program_20201129212219.png","start_date":"2008-12-23T00:00:00Z","end_date":null,"info_url":null,"wiki_url":"https://en.wikipedia.org/wiki/Commercial_Resupply_Services#Commercial_Resupply_Services","mission_patches":[]}],"family":"Antares","full_name":"Antares 130","variant":"130","reusable":false,"image_url":null,"info_url":"http://www.northropgrumman.com/Capabilities/Antares/Pages/default.aspx","wiki_url":"https://en.wikipedia.org/wiki/Antares_(rocket)#Antares_100"},{"id":165,"url":"https://ll.thespacedevs.com/2.2.0/config/launcher/165/?format=json","name":"Antares 230","manufacturer":{"id":257,"url":"https://ll.thespacedevs.com/2.2.0/agencies/257/?format=json","name":"Northrop Grumman Space Systems","featured":true,"type":"Commercial","country_code":"USA","abbrev":"NGSS","description":"Northrup Grumman Space Systems designs, builds and delivers space, defence and aviation-related systems to customers around the world. They aquired Orbital ATK in 2018 along with its launchers and ongoing missions.","administrator":"CEO: Kathy Warden","founding_year":"2015","launchers":"Antares | Minotaur | Pegasus","spacecraft":"Cygnus","parent":null,"image_url":"https://spacelaunchnow-prod-east.nyc3.digitaloceanspaces.com/media/agency_images/northrop2520grumman2520innovation2520systems_image_20190207032451.jpeg"},"program":[{"id":11,"url":"https://ll.thespacedevs.com/2.2.0/program/11/?format=json","name":"Commercial Resupply Services","description":"Commercial Resupply Services (CRS) are a series of flights awarded by NASA for the delivery of cargo and supplies to the International Space Station.The first CRS contracts were signed in 2008 and awarded $1.6 billion to SpaceX for twelve cargo Dragon and $1.9 billion to Orbital Sciences for eight Cygnus flights, covering deliveries to 2016. The Falcon 9 and Antares rockets were also developed under the CRS program to deliver cargo spacecraft to the ISS.","agencies":[{"id":44,"url":"https://ll.thespacedevs.com/2.2.0/agencies/44/?format=json","name":"National Aeronautics and Space Administration","type":"Government"},{"id":257,"url":"https://ll.thespacedevs.com/2.2.0/agencies/257/?format=json","name":"Northrop Grumman Space Systems","type":"Commercial"},{"id":1020,"url":"https://ll.thespacedevs.com/2.2.0/agencies/1020/?format=json","name":"Sierra Nevada Corporation","type":"Commercial"},{"id":121,"url":"https://ll.thespacedevs.com/2.2.0/agencies/121/?format=json","name":"SpaceX","type":"Commercial"}],"image_url":"https://spacelaunchnow-prod-east.nyc3.digitaloceanspaces.com/media/program_images/commercial2520_program_20201129212219.png","start_date":"2008-12-23T00:00:00Z","end_date":null,"info_url":null,"wiki_url":"https://en.wikipedia.org/wiki/Commercial_Resupply_Services#Commercial_Resupply_Services","mission_patches":[]}],"family":"Antares","full_name":"Antares 230","variant":"230","reusable":false,"image_url":"https://spacelaunchnow-prod-east.nyc3.digitaloceanspaces.com/media/launcher_images/antares_image_20190224025002.jpeg","info_url":"http://www.northropgrumman.com/Capabilities/Antares/Pages/default.aspx","wiki_url":"https://en.wikipedia.org/wiki/Antares_(rocket)#Antares_200"},{"id":210,"url":"https://ll.thespacedevs.com/2.2.0/config/launcher/210/?format=json","name":"Antares 230+","manufacturer":{"id":257,"url":"https://ll.thespacedevs.com/2.2.0/agencies/257/?format=json","name":"Northrop Grumman Space Systems","featured":true,"type":"Commercial","country_code":"USA","abbrev":"NGSS","description":"Northrup Grumman Space Systems designs, builds and delivers space, defence and aviation-related systems to customers around the world. They aquired Orbital ATK in 2018 along with its launchers and ongoing missions.","administrator":"CEO: Kathy Warden","founding_year":"2015","launchers":"Antares | Minotaur | Pegasus","spacecraft":"Cygnus","parent":null,"image_url":"https://spacelaunchnow-prod-east.nyc3.digitaloceanspaces.com/media/agency_images/northrop2520grumman2520innovation2520systems_image_20190207032451.jpeg"},"program":[{"id":11,"url":"https://ll.thespacedevs.com/2.2.0/program/11/?format=json","name":"Commercial Resupply Services","description":"Commercial Resupply Services (CRS) are a series of flights awarded by NASA for the delivery of cargo and supplies to the International Space Station.The first CRS contracts were signed in 2008 and awarded $1.6 billion to SpaceX for twelve cargo Dragon and $1.9 billion to Orbital Sciences for eight Cygnus flights, covering deliveries to 2016. The Falcon 9 and Antares rockets were also developed under the CRS program to deliver cargo spacecraft to the ISS.","agencies":[{"id":44,"url":"https://ll.thespacedevs.com/2.2.0/agencies/44/?format=json","name":"National Aeronautics and Space Administration","type":"Government"},{"id":257,"url":"https://ll.thespacedevs.com/2.2.0/agencies/257/?format=json","name":"Northrop Grumman Space Systems","type":"Commercial"},{"id":1020,"url":"https://ll.thespacedevs.com/2.2.0/agencies/1020/?format=json","name":"Sierra Nevada Corporation","type":"Commercial"},{"id":121,"url":"https://ll.thespacedevs.com/2.2.0/agencies/121/?format=json","name":"SpaceX","type":"Commercial"}],"image_url":"https://spacelaunchnow-prod-east.nyc3.digitaloceanspaces.com/media/program_images/commercial2520_program_20201129212219.png","start_date":"2008-12-23T00:00:00Z","end_date":null,"info_url":null,"wiki_url":"https://en.wikipedia.org/wiki/Commercial_Resupply_Services#Commercial_Resupply_Services","mission_patches":[]}],"family":"Antares","full_name":"Antares 230+","variant":"230+","reusable":false,"image_url":"https://spacelaunchnow-prod-east.nyc3.digitaloceanspaces.com/media/launcher_images/antares2520230252b_image_20191102024633.jpeg","info_url":"http://www.northropgrumman.com/Capabilities/Antares/Pages/default.aspx","wiki_url":"https://en.wikipedia.org/wiki/Antares_(rocket)#Antares_200"},{"id":126,"url":"https://ll.thespacedevs.com/2.2.0/config/launcher/126/?format=json","name":"Ares I-X","manufacturer":{"id":44,"url":"https://ll.thespacedevs.com/2.2.0/agencies/44/?format=json","name":"National Aeronautics and Space Administration","featured":true,"type":"Government","country_code":"USA","abbrev":"NASA","description":"The National Aeronautics and Space Administration is an independent agency of the executive branch of the United States federal government responsible for the civilian space program, as well as aeronautics and aerospace research. NASA have many launch facilities but most are inactive. The most commonly used pad will be LC-39B at Kennedy Space Center in Florida.","administrator":"Administrator: Bill Nelson","founding_year":"1958","launchers":"Space Shuttle | SLS","spacecraft":"Orion","parent":null,"image_url":"https://spacelaunchnow-prod-east.nyc3.digitaloceanspaces.com/media/agency_images/national2520aeronautics2520and2520space2520administration_image_20190207032448.jpeg"},"program":[],"family":"Ares","full_name":"Ares I-X","variant":"I-X","reusable":false,"image_url":"https://spacelaunchnow-prod-east.nyc3.digitaloceanspaces.com/media/launcher_images/ares2520i-x_image_20190222030444.jpeg","info_url":null,"wiki_url":"https://en.wikipedia.org/wiki/Ares_I"}]}