{"count":48,"next":"https://ll.thespacedevs.com/2.2.0/location/?format=json&limit=10&offset=10","previous":null,"results":[{"id":151,"url":"https://ll.thespacedevs.com/2.2.0/location/151/?format=json","name":"Broglio Space Center, Kenya","country_code":"ITA","map_image":"https://spacelaunchnow-prod-east.nyc3.digitaloceanspaces.com/media/launch_images/location_151_20200803142409.jpg","total_launch_count":9,"total_landing_count":0},{"id":10,"url":"https://ll.thespacedevs.com/2.2.0/location/10/?format=json","name":"Onenui Station, Mahia Peninsula, New Zealand","country_code":"NZL","map_image":"https://spacelaunchnow-prod-east.nyc3.digitaloceanspaces.com/media/launch_images/location_10_20200803142509.jpg","total_launch_count":26,"total_landing_count":4},{"id":24,"url":"https://ll.thespacedevs.com/2.2.0/location/24/?format=json","name":"Uchinoura Space Center, Japan","country_code":"JPN","map_image":"https://spacelaunchnow-prod-east.nyc3.digitaloceanspaces.com/media/launch_images/location_24_20200803142411.jpg","total_launch_count":42,"total_landing_count":0},{"id":28,"url":"https://ll.thespacedevs.com/2.2.0/location/28/?format=json","name":"Van Horn, TX, USA","country_code":"USA","map_image":"https://spacelaunchnow-prod-east.nyc3.digitaloceanspaces.com/media/launch_images/location_28_20200803142431.jpg","total_launch_count":0,"total_landing_count":0},{"id":13,"url":"https://ll.thespacedevs.com/2.2.0/location/13/?format=json","name":"Kourou, French Guiana","country_code":"GUF","map_image":"https://spacelaunchnow-prod-east.nyc3.digitaloceanspaces.com/media/launch_images/location_13_20200803142412.jpg","total_launch_count":312,"total_landing_count":0},{"id":146,"url":"https://ll.thespacedevs.com/2.2.0/location/146/?format=json","name":"Svobodny Cosmodrome, Russian Federation","country_code":"RUS","map_image":"https://spacelaunchnow-prod-east.nyc3.digitaloceanspaces.com/media/launch_images/location_146_20200803142450.jpg","total_launch_count":5,"total_landing_count":0},{"id":25,"url":"https://ll.thespacedevs.com/2.2.0/location/25/?format=json","name":"Pacific Spaceport Complex, Alaska, USA","country_code":"USA","map_image":"https://spacelaunchnow-prod-east.nyc3.digitaloceanspaces.com/media/launch_images/location_25_20200803142500.jpg","total_launch_count":8,"total_landing_count":0},{"id":6,"url":"https://ll.thespacedevs.com/2.2.0/location/6/?format=json","name":"Plesetsk Cosmodrome, Russian Federation","country_code":"RUS","map_image":"https://spacelaunchnow-prod-east.nyc3.digitaloceanspaces.com/media/launch_images/location_6_20200803142434.jpg","total_launch_count":1651,"total_landing_count":0},{"id":147,"url":"https://ll.thespacedevs.com/2.2.0/location/147/?format=json","name":"Interarmy Special Vehicles Test Centre, French Algeria","country_code":"FRA","map_image":"https://spacelaunchnow-prod-east.nyc3.digitaloceanspaces.com/media/launch_images/location_147_20200803142452.jpg","total_launch_count":4,"total_landing_count":0},{"id":29,"url":"https://ll.thespacedevs.com/2.2.0/location/29/?format=json","name":"Corn Ranch, USA","country_code":"USA","map_image":"https://spacelaunchnow-prod-east.nyc3.digitaloceanspaces.com/media/launch_images/location_29_20200803142436.jpg","total_launch_count":21,"total_landing_count":0}]}