{"count":283,"next":"https://ll.thespacedevs.com/2.2.0/agencies/?format=json&limit=10&offset=10","previous":null,"results":[{"id":225,"url":"https://ll.thespacedevs.com/2.2.0/agencies/225/?format=json","name":"1worldspace","featured":false,"type":"Commercial","country_code":"USA","abbrev":"1WSP","description":"A now nonexistent satellite radio network company that operated two satellites to bring coverage with 62 stations to most of the Eastern Hemisphere. They went bankrupt in 2008. There has been a plan to relaunch the company, but it was announced in 2011, and nothing has been done since.","administrator":null,"founding_year":"1960","launchers":"None","spacecraft":"AfriStar and AsiaStar","parent":null,"image_url":null},{"id":1030,"url":"https://ll.thespacedevs.com/2.2.0/agencies/1030/?format=json","name":"ABL Space Systems","featured":false,"type":"Commercial","country_code":"USA","abbrev":"ABL","description":"ABL Space Systems is an American company based in El Segundo, California, specialized in launch vehicle and launch systems technology manufacturing using CNC and 3D printing.","administrator":"CEO: Harry O'Hanley","founding_year":"2017","launchers":"475","spacecraft":"","parent":null,"image_url":"https://spacelaunchnow-prod-east.nyc3.digitaloceanspaces.com/media/agency_images/abl_space_syste_image_20211102154855.jpg"},{"id":136,"url":"https://ll.thespacedevs.com/2.2.0/agencies/136/?format=json","name":"Ad Astra Rocket Company","featured":false,"type":"Commercial","country_code":"USA","abbrev":"AARC","description":"Ad Astra Rocket Company is an American Space Company doing research and development in plasma propulsion technology. This involves using the technology of VASIMR developed in the late '70s, developed by the companies founder, Franklin Diaz. They have begun testing of their VF-200 model engine, built for interplanetary travel.","administrator":"Dr. Franklin Chang Diaz","founding_year":"2005","launchers":"None","spacecraft":"VX-200, VF-200","parent":null,"image_url":null},{"id":133,"url":"https://ll.thespacedevs.com/2.2.0/agencies/133/?format=json","name":"Aerojet","featured":false,"type":"Commercial","country_code":"USA","abbrev":"Aerojet","description":"An American Propulsion and Rocket manufacturer founded in 1942 that worked on major projects for NASA such as the Apollo CM main engine, the Space Shuttle Orbital Maneuvering System, and engines for the Titan Rockets the launched the likes of Voyager. They merged with Rocketdyne in 2013.","administrator":null,"founding_year":"1942","launchers":"Aerobee, Aerojet General X-8","spacecraft":"None","parent":null,"image_url":null},{"id":2,"url":"https://ll.thespacedevs.com/2.2.0/agencies/2/?format=json","name":"Aeronautics and Space Research and Diffusion Center","featured":false,"type":"Government","country_code":"URY","abbrev":"CIDA-E","description":"An Uruguayan Government Space and Aeronautics Research Organization founded in 1975. They study and promote aerospace and space issues along with researching into them. They also advise and collaborate with the Uruguayan Air Force.","administrator":null,"founding_year":"1975","launchers":"None","spacecraft":"None","parent":null,"image_url":null},{"id":1003,"url":"https://ll.thespacedevs.com/2.2.0/agencies/1003/?format=json","name":"Aérospatiale","featured":false,"type":"Government","country_code":"FRA","abbrev":"","description":"Aérospatiale was a French state-owned aerospace manufacturer that built both civilian and military aircraft, rockets and satellites. It was originally known as Société nationale industrielle aérospatiale (SNIAS). Its head office was in the 16th arrondissement of Paris. The name was changed to Aérospatiale during 1970.","administrator":null,"founding_year":"1970","launchers":"","spacecraft":"","parent":null,"image_url":null},{"id":282,"url":"https://ll.thespacedevs.com/2.2.0/agencies/282/?format=json","name":"Aevum","featured":false,"type":null,"country_code":"USA","abbrev":"AEV","description":null,"administrator":null,"founding_year":null,"launchers":"","spacecraft":"","parent":null,"image_url":null},{"id":178,"url":"https://ll.thespacedevs.com/2.2.0/agencies/178/?format=json","name":"Airbus Defence and Space","featured":false,"type":"Multinational","country_code":"FRA, GER, GBR, ESP, ITA","abbrev":"AIRDS","description":"Airbus Defence and Space is a division of Airbus responsible for defence and aerospace products and services. The division was formed in January 2014 during the corporate restructuring of European Aeronautic Defence and Space (EADS), and comprises the former Airbus Military, Astrium, and Cassidian divisions. It is the world's second largest space company after Boeing and one of the top ten defence companies in the world.","administrator":"Dirk Hoke (CEO)","founding_year":"2014","launchers":"Ariane","spacecraft":"Automated Transfer Vehicle (ATV), Columbus (ISS Science Laboratory), Orion Service Module","parent":null,"image_url":"https://spacelaunchnow-prod-east.nyc3.digitaloceanspaces.com/media/agency_images/airbus2520defence2520and2520space_image_20190207032423.jpeg"},{"id":4,"url":"https://ll.thespacedevs.com/2.2.0/agencies/4/?format=json","name":"Algerian Space Agency","featured":false,"type":"Government","country_code":"DZA","abbrev":"ASAL","description":null,"administrator":null,"founding_year":null,"launchers":"","spacecraft":"","parent":null,"image_url":null},{"id":156,"url":"https://ll.thespacedevs.com/2.2.0/agencies/156/?format=json","name":"Alliant Techsystems","featured":false,"type":"Commercial","country_code":"USA","abbrev":"ATK","description":null,"administrator":null,"founding_year":null,"launchers":"","spacecraft":"","parent":null,"image_url":null}]}